{
    "name": "FlatLands.GeneralCamera",
    "rootNamespace": "",
    "references": [
        "GUID:268109eae726949449e432e7b577b8c6",
        "GUID:88368031873508145bdc6d523ec40911",
        "GUID:380b05146d450034b9ad9a2676a76931",
        "GUID:15fc0a57446b3144c949da3e2b9737a9",
        "GUID:e2ece91ff5c61f04c958de552e2ad15b",
        "GUID:f51ebe6a0ceec4240a699833d6309b23"
    ],
    "includePlatforms": [],
    "excludePlatforms": [],
    "allowUnsafeCode": false,
    "overrideReferences": false,
    "precompiledReferences": [],
    "autoReferenced": true,
    "defineConstraints": [],
    "versionDefines": [],
    "noEngineReferences": false
}