%YAML 1.1
%TAG !u! tag:unity3d.com,2011:
--- !u!1 &5431947683220406704
GameObject:
  m_ObjectHideFlags: 0
  m_CorrespondingSourceObject: {fileID: 0}
  m_PrefabInstance: {fileID: 0}
  m_PrefabAsset: {fileID: 0}
  serializedVersion: 6
  m_Component:
  - component: {fileID: 1251386274955198395}
  m_Layer: 0
  m_Name: Pivot
  m_TagString: Untagged
  m_Icon: {fileID: 0}
  m_NavMeshLayer: 0
  m_StaticEditorFlags: 0
  m_IsActive: 1
--- !u!4 &1251386274955198395
Transform:
  m_ObjectHideFlags: 0
  m_CorrespondingSourceObject: {fileID: 0}
  m_PrefabInstance: {fileID: 0}
  m_PrefabAsset: {fileID: 0}
  m_GameObject: {fileID: 5431947683220406704}
  serializedVersion: 2
  m_LocalRotation: {x: 0, y: 0, z: 0, w: 1}
  m_LocalPosition: {x: 0, y: 0, z: 0}
  m_LocalScale: {x: 1, y: 1, z: 1}
  m_ConstrainProportionsScale: 0
  m_Children:
  - {fileID: 5508961838691884714}
  m_Father: {fileID: 3596146220525882132}
  m_LocalEulerAnglesHint: {x: 0, y: 0, z: 0}
--- !u!1 &6495455173936835842
GameObject:
  m_ObjectHideFlags: 0
  m_CorrespondingSourceObject: {fileID: 0}
  m_PrefabInstance: {fileID: 0}
  m_PrefabAsset: {fileID: 0}
  serializedVersion: 6
  m_Component:
  - component: {fileID: 3596146220525882132}
  m_Layer: 0
  m_Name: Roof_25_Up_Edges_ModularBuilding
  m_TagString: Untagged
  m_Icon: {fileID: 0}
  m_NavMeshLayer: 0
  m_StaticEditorFlags: 0
  m_IsActive: 1
--- !u!4 &3596146220525882132
Transform:
  m_ObjectHideFlags: 0
  m_CorrespondingSourceObject: {fileID: 0}
  m_PrefabInstance: {fileID: 0}
  m_PrefabAsset: {fileID: 0}
  m_GameObject: {fileID: 6495455173936835842}
  serializedVersion: 2
  m_LocalRotation: {x: 0, y: 0, z: 0, w: 1}
  m_LocalPosition: {x: 0, y: 0, z: 0}
  m_LocalScale: {x: 1, y: 1, z: 1}
  m_ConstrainProportionsScale: 0
  m_Children:
  - {fileID: 1251386274955198395}
  m_Father: {fileID: 0}
  m_LocalEulerAnglesHint: {x: 0, y: 0, z: 0}
--- !u!1001 &5474541957736102209
PrefabInstance:
  m_ObjectHideFlags: 0
  serializedVersion: 2
  m_Modification:
    serializedVersion: 3
    m_TransformParent: {fileID: 1251386274955198395}
    m_Modifications:
    - target: {fileID: -8679921383154817045, guid: 9f5bac58c2353134b8e547585279c7e4,
        type: 3}
      propertyPath: m_LocalPosition.x
      value: 0
      objectReference: {fileID: 0}
    - target: {fileID: -8679921383154817045, guid: 9f5bac58c2353134b8e547585279c7e4,
        type: 3}
      propertyPath: m_LocalPosition.y
      value: 0
      objectReference: {fileID: 0}
    - target: {fileID: -8679921383154817045, guid: 9f5bac58c2353134b8e547585279c7e4,
        type: 3}
      propertyPath: m_LocalPosition.z
      value: 0
      objectReference: {fileID: 0}
    - target: {fileID: -8679921383154817045, guid: 9f5bac58c2353134b8e547585279c7e4,
        type: 3}
      propertyPath: m_LocalRotation.w
      value: 0.7071068
      objectReference: {fileID: 0}
    - target: {fileID: -8679921383154817045, guid: 9f5bac58c2353134b8e547585279c7e4,
        type: 3}
      propertyPath: m_LocalRotation.x
      value: -0.7071068
      objectReference: {fileID: 0}
    - target: {fileID: -8679921383154817045, guid: 9f5bac58c2353134b8e547585279c7e4,
        type: 3}
      propertyPath: m_LocalRotation.y
      value: 0
      objectReference: {fileID: 0}
    - target: {fileID: -8679921383154817045, guid: 9f5bac58c2353134b8e547585279c7e4,
        type: 3}
      propertyPath: m_LocalRotation.z
      value: -0
      objectReference: {fileID: 0}
    - target: {fileID: -8679921383154817045, guid: 9f5bac58c2353134b8e547585279c7e4,
        type: 3}
      propertyPath: m_LocalEulerAnglesHint.x
      value: 0
      objectReference: {fileID: 0}
    - target: {fileID: -8679921383154817045, guid: 9f5bac58c2353134b8e547585279c7e4,
        type: 3}
      propertyPath: m_LocalEulerAnglesHint.y
      value: 0
      objectReference: {fileID: 0}
    - target: {fileID: -8679921383154817045, guid: 9f5bac58c2353134b8e547585279c7e4,
        type: 3}
      propertyPath: m_LocalEulerAnglesHint.z
      value: 0
      objectReference: {fileID: 0}
    - target: {fileID: -7511558181221131132, guid: 9f5bac58c2353134b8e547585279c7e4,
        type: 3}
      propertyPath: m_Materials.Array.data[0]
      value: 
      objectReference: {fileID: 2100000, guid: 9e07e98d714abd44da90cf32995431df, type: 2}
    - target: {fileID: 919132149155446097, guid: 9f5bac58c2353134b8e547585279c7e4,
        type: 3}
      propertyPath: m_Name
      value: Roof_25_Up_Edges_Model
      objectReference: {fileID: 0}
    - target: {fileID: 919132149155446097, guid: 9f5bac58c2353134b8e547585279c7e4,
        type: 3}
      propertyPath: m_StaticEditorFlags
      value: 0
      objectReference: {fileID: 0}
    m_RemovedComponents: []
    m_RemovedGameObjects: []
    m_AddedGameObjects: []
    m_AddedComponents:
    - targetCorrespondingSourceObject: {fileID: 919132149155446097, guid: 9f5bac58c2353134b8e547585279c7e4,
        type: 3}
      insertIndex: -1
      addedObject: {fileID: 7783656976559056774}
  m_SourcePrefab: {fileID: 100100000, guid: 9f5bac58c2353134b8e547585279c7e4, type: 3}
--- !u!1 &5131872899629171728 stripped
GameObject:
  m_CorrespondingSourceObject: {fileID: 919132149155446097, guid: 9f5bac58c2353134b8e547585279c7e4,
    type: 3}
  m_PrefabInstance: {fileID: 5474541957736102209}
  m_PrefabAsset: {fileID: 0}
--- !u!64 &7783656976559056774
MeshCollider:
  m_ObjectHideFlags: 0
  m_CorrespondingSourceObject: {fileID: 0}
  m_PrefabInstance: {fileID: 0}
  m_PrefabAsset: {fileID: 0}
  m_GameObject: {fileID: 5131872899629171728}
  m_Material: {fileID: 0}
  m_IncludeLayers:
    serializedVersion: 2
    m_Bits: 0
  m_ExcludeLayers:
    serializedVersion: 2
    m_Bits: 0
  m_LayerOverridePriority: 0
  m_IsTrigger: 0
  m_ProvidesContacts: 0
  m_Enabled: 1
  serializedVersion: 5
  m_Convex: 1
  m_CookingOptions: 30
  m_Mesh: {fileID: 1393437584057193505, guid: 9f5bac58c2353134b8e547585279c7e4, type: 3}
--- !u!4 &5508961838691884714 stripped
Transform:
  m_CorrespondingSourceObject: {fileID: -8679921383154817045, guid: 9f5bac58c2353134b8e547585279c7e4,
    type: 3}
  m_PrefabInstance: {fileID: 5474541957736102209}
  m_PrefabAsset: {fileID: 0}
